<svg xmlns="http://www.w3.org/2000/svg" width="661" height="607" viewBox="0 0 661 607">
    <defs>
        <linearGradient id="2ucbz281ya" x1="42.297%" x2="50.089%" y1="43.854%" y2="61.439%">
            <stop offset="0%" stop-color="#7D0046"/>
            <stop offset="100%" stop-color="#39001E"/>
        </linearGradient>
        <linearGradient id="s59mewgvhb" x1="10389.46%" x2="10281.899%" y1="21.982%" y2="59.454%">
            <stop offset="0%" stop-color="#F21F00"/>
            <stop offset="100%" stop-color="#B71400"/>
        </linearGradient>
    </defs>
    <g fill="none" fill-rule="evenodd" opacity=".5" transform="translate(1 1)">
        <path fill="#3859E0" fill-rule="nonzero" d="M241.92 354L196 354 215.08 273 261 273z"/>
        <path fill="#1C2472" fill-rule="nonzero" d="M248.92 354L203 354 222.08 273 268 273z"/>
        <path fill="#111A56" fill-rule="nonzero" d="M208.495 327.5L207 333.779 252.04 340 258 315z"/>
        <rect width="332" height="227" x="56" y="105" fill="#3859E0" fill-rule="nonzero" rx="4.68"/>
        <rect width="332" height="227" x="64" y="105" fill="#1C2472" fill-rule="nonzero" rx="4.68"/>
        <path fill="#FFF" fill-rule="nonzero" d="M77 114H382V322H77z"/>
        <rect width="277" height="177" x="88" y="119" stroke="#B3C7FB" rx="2.77"/>
        <path fill="#B3C7FB" fill-rule="nonzero" d="M359.633 121H93.367c-2.956 0-5.356 2.382-5.367 5.327V142h277v-15.673c-.01-2.945-2.41-5.327-5.367-5.327z"/>
        <rect width="277" height="177" x="97" y="132" fill="#FFF" fill-rule="nonzero" stroke="#DCE4FF" rx="2.77"/>
        <path fill="#DCE4FF" fill-rule="nonzero" d="M368.631 132H102.369c-2.965 0-5.369 2.392-5.369 5.342V153h277v-15.6c.015-1.427-.544-2.8-1.552-3.815-1.009-1.014-2.383-1.585-3.817-1.585z"/>
        <path fill="#FFF" fill-rule="nonzero" d="M114 142.5c0 1.933-1.567 3.5-3.5 3.5s-3.5-1.567-3.5-3.5 1.567-3.5 3.5-3.5 3.5 1.567 3.5 3.5zM130 142.5c0 1.417-.855 2.694-2.165 3.235-1.31.54-2.816.238-3.816-.766-1-1.005-1.295-2.513-.748-3.82.547-1.307 1.829-2.156 3.246-2.149.927 0 1.815.37 2.469 1.026.653.657 1.018 1.547 1.014 2.474zM145 142.5c0 1.417-.855 2.694-2.165 3.235-1.31.54-2.816.238-3.816-.766-1-1.005-1.295-2.513-.748-3.82.547-1.307 1.829-2.156 3.246-2.149.927 0 1.815.37 2.469 1.026.653.657 1.018 1.547 1.014 2.474z"/>
        <path fill="#1C2472" fill-rule="nonzero" d="M161 354h132.274c5.372 0 9.726 4.174 9.726 9.322V365H161v-11z"/>
        <path fill="#3859E0" fill-rule="nonzero" d="M161 354h25.458c5.27 0 9.542 4.174 9.542 9.322V365h-35v-11z"/>
        <path stroke="#FFF" stroke-width="1.5" d="M102.53 604L97 604 97 368 118 368zM594.484 604L600 604 600 368 579 368z"/>
        <path fill="#6E92EA" fill-rule="nonzero" d="M49 363H650V374H49z"/>
        <path stroke="#FFF" d="M449.204 456l-39.1 143.238c-.243.894-.055 1.85.51 2.587.565.737 1.443 1.17 2.376 1.175h0c1.319.004 2.484-.852 2.865-2.105L461 456h-11.796zM539.812 456l39.084 143.238c.244.898.054 1.857-.516 2.595-.57.737-1.452 1.169-2.388 1.167h0c-1.316-.002-2.478-.855-2.865-2.105L528 456h11.812zM498.859 456l10.133 143.805c.06.827-.23 1.641-.798 2.248-.57.606-1.367.95-2.2.947h-.216c-1.534-.002-2.82-1.153-2.98-2.67L487 456.059l11.859-.058z"/>
        <path fill="#FFF" fill-rule="nonzero" d="M441.32 407.089S366 420.665 366 444.306s71.778 23.118 127.46 23.68c61.56.62 108.64-19.394 116.308-68.19 11.23-71.428-5.994-185.543-64.498-199.39C424.427 171.84 441.32 407.09 441.32 407.09z"/>
        <path fill="#F5D0C0" fill-rule="nonzero" d="M316.502 297l-9.529-3.99s-8.68 2.56-12.383 2.108c-3.671-.695-7.037-2.468-9.645-5.083-2.18-2.127-4.417-5.93-3.858-6.513 2.257-2.202 10.108 3.294 11.96 3.012 1.851-.282 4.475-1.563 7.715-2.372 3.64-.903 7.504-.088 10.436 2.202L322 291.127"/>
        <path fill="url(#2ucbz281ya)" fill-rule="nonzero" d="M503.56 214.058c16.856-.66 31.348 4.364 46.305 11.636 23.25 11.326 44.213 49.454 44.213 49.454s17.843-32.368 30.146-55.64l7.614 2.695s3.43 94.311-21.311 104.978c-15.659 6.724-34.874-7.117-52.704-23.96 1.58 6.439 3.083 13.335 4.467 20.703 7.224 38.53 9.074 40.456 9.074 40.456s3.894 5.375-3.894 8.977c-14.468 6.666-72.708 9.228-93.464 6.666-20.757-2.563-49.965-6.416-49.965-13.486-.305-4.475 1.658-8.807 5.238-11.558 1.135-1.123 2.85-22.145 5.24-46.07-9.782 10.805-21.406 20.928-32.961 24.621-28.251 9.03-90.983-36.992-93.481-38.836l-.077-.057 5.048-6.595 65.822 8.438s15.964-24.655 35.084-48.495c11.193-13.52 26.53-22.988 43.635-26.974l.47-.846L502.433 214l1.45.801z"/>
        <path fill="url(#s59mewgvhb)" fill-rule="nonzero" d="M499.977 367s.039.153.108.445L569.95 367s18.856 43.365-10.009 68.395c-20.54 17.812-111.529 13.252-125.196 12.243-.247-.028-.482.108-.58.336-.099.229-.036.494.154.654 9.268 8.898 16.58 19.637 21.47 31.53 14.093 33.12 25.689 98.547 24.934 99.789-2.738 2.138-6.093 3.33-9.564 3.395 0 0-71.727-93.025-91.37-146.184-1.22-.11-2.435.34-3.287 1.238-.913.96-1.291 2.307-1.012 3.6 1.534 7.01 3.67 20.623 3.67 42.156 0 42.427-26.33 99.24-26.33 99.24-3.513.877-7.103 1.415-10.719 1.608 0 0-23.65-152.879-1.941-181.421C361.878 375.036 449.413 367 449.413 367z"/>
        <path stroke="#FFF" stroke-width=".5" d="M379 295.007s14.48-.5 17 6.993"/>
        <path fill="#3859E0" fill-rule="nonzero" d="M344.579 589.959s-20.645 12.207-19.536 14.85c1.486 3.556 26.906-1.71 29.423-4.601 2.219-2.53-3.19-10.991-3.19-10.991L346.045 588"/>
        <path fill="#F5D0C0" fill-rule="nonzero" d="M341 580.58l1.419 10.273c1.428.239 2.894.186 4.298-.153 1.64-.27 3.178-.931 4.463-1.92L357 570"/>
        <path fill="#3859E0" fill-rule="nonzero" d="M474.25 587.445s-17.486 13.055-16.18 15.658c1.74 3.504 25.454-4.169 27.574-7.36 1.892-2.798-4.372-11.743-4.372-11.743h-4.75"/>
        <path fill="#F5D0C0" fill-rule="nonzero" d="M471 582.048l3.04 4.787s.9.516 3.433-.278c1.537-.527 2.808-1.686 3.527-3.218L478.017 566"/>
        <path stroke="#FFF" stroke-width=".5" d="M379.933 435s-8.519-25.78-.481-33.322C387.489 394.135 419.39 379.3 475 377M443 247c-7.313 16.538-6.998 58-6.998 58"/>
        <path fill="#F5D0C0" fill-rule="nonzero" d="M631.147 229l2.205-11.583s9.224-1.773 12.086-4.235c2.617-2.409 4.241-5.738 4.544-9.318.213-2.344-1.566-8.884-2.417-8.864-1.934 0-4.003 9.081-5.801 9.85-1.799.768-7.871.787-10.85 2.166-2.977 1.38-4.447 7.702-4.447 7.702L622 226.282"/>
        <path stroke="#FFF" stroke-width=".5" d="M584 302c.243-12.687 11-27 11-27M534 278s14.479 14.856 25 25"/>
        <path fill="#3859E0" fill-rule="nonzero" d="M449.429 170.625c-3.287 7.432-.73 16.317 5.896 20.492 1.064.856 2.45 1.108 3.72.676.962-.676 1.632-1.735 1.86-2.942 2.486-8.29.674-17.367-4.762-23.851"/>
        <path fill="#EDB5A2" fill-rule="nonzero" d="M457.555 186.321c-.575-.428-1.36-.428-1.936 0-.538.443-.941 1.03-1.161 1.695-.68 1.183-.597 2.66.213 3.758.95 1.554 2.284 2.835 3.87 3.72.423.255.89.427 1.375.506 1.621-.06 3.126-.864 4.084-2.181"/>
        <path fill="#F5D0C0" fill-rule="nonzero" d="M473.166 195.704l1.99 20.145L460 219.628s10.76 10.024 23.966 9.338C503.854 227.93 510 213.54 510 213.54l-12.828-.215L486.412 182"/>
        <path fill="#F5D0C0" fill-rule="nonzero" d="M452.2 174.184c1.916 6.336 4.245 12.545 6.97 18.588 2.923 6.15 8.078 12.67 14.97 12.204 7.655-.339 14.291-5.312 16.648-12.476 2.982-7.625 3.338-16.842-1.363-23.904-3.506-5.21-8.877-8.936-15.048-10.44-6.083-1.416-24.488 6.986-22.178 16.028"/>
        <path fill="#3859E0" fill-rule="nonzero" d="M491.63 185.851c-1.343.832-3.072-1.934-3.84-5.53-.326-1.702-.883-3.268-1.133-4.99-.55-3.4-2.694-6.323-5.76-7.85-3.936-2.127-7.296-1.354-11.271.251-3.975 1.605-7.258 3.403-11.022 4.699-3.742 1.48-7.83 1.837-11.77 1.025-3.301-.91-6.244-2.82-8.43-5.473-2.4-3.074-1.536-6.284 1.172-8.74 2.01-1.403 3.725-3.19 5.05-5.26 1.517-3.287 0-7.484 1.92-10.597 1.705-2.362 4.526-3.635 7.412-3.345 1.551.077 3.081.403 4.531.967 1.786.715 3.975 2.281 5.99 1.933 1.345-.27 2.247-1.585 3.572-2.069 3.092-1.102 7.45-.754 9.428 2.185.691 1.025 1.037 2.263 1.92 3.23 5.76 6.903 12.942 2.108 16.072 13.536 1.363 5.008-.384 9.36 0 15.315.538 7.213-1.92 9.514-3.84 10.713z"/>
        <path fill="#F5D0C0" fill-rule="nonzero" d="M487.031 183.096c-.553-4.898 6.445-5.997 6.94 0 .454 5.776-4.39 12.493-6.92 6.656"/>
        <rect width="48" height="48" x="13" y="45" fill-rule="nonzero" stroke="#FFF" rx="3.25"/>
        <rect width="77" height="77" x="321" fill-rule="nonzero" stroke="#FFF" rx="5.12" transform="rotate(180 359.5 38.5)"/>
        <rect width="46" height="46" x="522" y="143" fill-rule="nonzero" stroke="#FFF" rx="3.07" transform="rotate(180 545 166)"/>
        <path stroke="#A8BBF4" stroke-linecap="round" stroke-linejoin="round" d="M40 265c0 1.657-1.343 3-3 3s-3-1.343-3-3 1.343-3 3-3c.797-.005 1.563.309 2.127.873.564.564.878 1.33.873 2.127h0zM171 504c0 1.657-1.343 3-3 3s-3-1.343-3-3 1.343-3 3-3c.797-.005 1.563.309 2.127.873.564.564.878 1.33.873 2.127h0zM579 233c0 1.657-1.343 3-3 3s-3-1.343-3-3 1.343-3 3-3c1.652.011 2.989 1.348 3 3h0zM420 140c0 1.213-.73 2.307-1.852 2.772-1.12.464-2.411.207-3.27-.65-.857-.859-1.114-2.15-.65-3.27.465-1.121 1.559-1.852 2.772-1.852 1.657 0 3 1.343 3 3h0zM154 52c0 1.657-1.343 3-3 3s-3-1.343-3-3 1.343-3 3-3 3 1.343 3 3h0zM228 458L228 467M232 463L223 463M261 73L261 82M265 77L256 77M4 149L4 158M9 154L0 154M654 417L654 426M659 421L650 421"/>
    </g>
</svg>
